[
    {
        "title": "Event Action",
        "label": "interaction",
        "redirect": "event"
    },
    {
        "title": "Form",
        "label": "form submitted",
        "redirect": "form"
    }
]